Data Wrangling
…
- Most hard work already done.
- Tables are nearly in a "tidy" format.
- Tidy data means:
  - Each column is a variable.
  - Each row is an observation.

---

```r
df
```

```
## # A tibble: 5,000 x 32
##    ph_abg hco3_abg temp_c temp_nc  urea creatinine    na     k    hb   wbc
##     <dbl>    <dbl>  <dbl>   <dbl> <dbl> <chr>      <dbl> <dbl> <dbl> <dbl>
##  1   7.44     28     36.9    37.1   3   80 microm…   135   4.2  90    9.6 
##  2   7.3      20.2   36.6    36.4   5.8 93 microm…   140   4.4 118   11.5 
##  3   7.48     24.6   37.2    36.2   4.5 75 microm…   140   3.8 113   12.4 
##  4   7.33     22.3   35.4    35.8  13.7 173 micro…   136   5   117   13.2 
##  5   7.21     20     35.9    37.1   7.9 186 micro…   140   4.9 171   20   
##  6   7.5      25.3   36.1    35.6   8.9 81 microm…   138   4.2 110   16.9 
##  7   7.29     19.5   35.6    38.3  12.5 55 microm…   138   5   132   13.2 
##  8   7.4      23.1   35.9    36.1   9.4 251 micro…   138   5.8  99   15.7 
##  9   7.36     24     35.9    36.6  12.9 390 micro…   134   6.5   9.7  8.85
## 10   7.43     22     36.6    37.3   5.1 56 microm…   139   4.6 141   13.5 
## # … with 4,990 more rows, and 22 more variables: neutrophil <dbl>,
## #   platelets <dbl>, crp <dbl>, chemo <dbl>, chronic_rrt <dbl>,
## #   metastatic <dbl>, radiotx <dbl>, apache <dbl>, medical <dbl>,
## #   system <dbl>, height <dbl>, weight <dbl>, elective_surgical <dbl>,
## #   arrival_dttm <dttm>, discharge_dttm <dttm>, dob <date>,
## #   vital_status <chr>, sex <chr>, id <chr>, lactate_1hr <dbl>,
## #   lactate_6hr <dbl>, lactate_12hr <dbl>
```
…
---

# Basic tasks: filter & select

First, let's _filter_ the demographic data by row

```r
filter(df, height >= 1.8)
```

```
## # A tibble: 1,019 x 32
##    ph_abg hco3_abg temp_c temp_nc  urea creatinine    na     k    hb   wbc
##     <dbl>    <dbl>  <dbl>   <dbl> <dbl> <chr>      <dbl> <dbl> <dbl> <dbl>
##  1   7.3      20.2   36.6    36.4   5.8 93 microm…   140   4.4   118  11.5
##  2   7.21     20     35.9    37.1   7.9 186 micro…   140   4.9   171  20  
##  3   7.46     25.2   37.1    36.8  19   163 micro…   135   2.4    91  14.3
##  4   7.44     22.7   36.5    36.7   1.7 56 microm…   134   4.3   102  11.8
##  5   7.49     38     37      36.1  10.1 66 microm…   142   3.7    75  10.8
##  6   7.45     30.3   36.4    37.3   7.8 89 microm…   152   4.9    99  16  
##  7   7.27     26.2   36.2    38     9.2 268 micro…   136   4.5   154   7.5
##  8   7.34     20.2   36.3    35.7   9.3 49 microm…   110   4.6   158   8.1
##  9   7.3      21.5   36.7    37.4  10.1 158 micro…   134   4.5   171  21.8
## 10   7.38     23.2   35.2    33.6   9.7 136 micro…   131   5.5   128   6  
## # … with 1,009 more rows, and 22 more variables: neutrophil <dbl>,
## #   platelets <dbl>, crp <dbl>, chemo <dbl>, chronic_rrt <dbl>,
## #   metastatic <dbl>, radiotx <dbl>, apache <dbl>, medical <dbl>,
## #   system <dbl>, height <dbl>, weight <dbl>, elective_surgical <dbl>,
## #   arrival_dttm <dttm>, discharge_dttm <dttm>, dob <date>,
## #   vital_status <chr>, sex <chr>, id <chr>, lactate_1hr <dbl>,
## #   lactate_6hr <dbl>, lactate_12hr <dbl>
```
…
class: center, middle

<img src="./images/filter.png" width="80%" />

---

A similar function called `select` acts over columns. Just want the `sex` column?

```r
select(df, sex)
```

```
## # A tibble: 5,000 x 1
##    sex  
##    <chr>
##  1 F    
##  2 M    
##  3 F    
##  4 M    
##  5 M    
##  6 F    
##  7 F    
##  8 M    
##  9 M    
## 10 M    
## # … with 4,990 more rows
```
…
---

# The Pipe

Now here comes the _proper_ magic. What if you want to both filter and select?

```r
df %>%
  filter(height >= 1.8) %>%
  select(sex)
```

```
## # A tibble: 1,019 x 1
##    sex  
##    <chr>
##  1 M    
##  2 M    
##  3 M    
##  4 F    
##  5 M    
##  6 F    
##  7 M    
##  8 M    
##  9 M    
## 10 M    
## # … with 1,009 more rows
```
…
Armed with only these 6 functions (remember filter and select), you can accomplish a huge amount that would be tiresome and frustrating in excel.

---

.pull-left[

```r
df %>%
  select(height, weight, sex) %>%
  arrange(height)
```

```
## # A tibble: 5,000 x 3
##    height weight sex  
##     <dbl>  <dbl> <chr>
##  1   1.45     60 M    
##  2   1.45     50 F    
##  3   1.45     85 F    
##  4   1.45     60 M    
##  5   1.45     50 F    
##  6   1.45     50 F    
##  7   1.45     50 M    
##  8   1.45     60 F    
##  9   1.45     50 F    
## 10   1.45     85 F    
## # … with 4,990 more rows
```
]

--

.pull-right[

```r
df %>%
  select(height, weight, sex) %>%
  arrange(desc(height))
```

```
## # A tibble: 5,000 x 3
##    height weight sex  
##     <dbl>  <dbl> <chr>
##  1    1.9     75 M    
##  2    1.9     90 M    
##  3    1.9    100 M    
##  4    1.9    105 M    
##  5    1.9     90 M    
##  6    1.9     90 M    
##  7    1.9     95 F    
##  8    1.9     85 M    
##  9    1.9    125 M    
## 10    1.9    150 M    
## # … with 4,990 more rows
```
…
<img src="./images/summarise.png" width="100%" />

---

# Creating new variables

```r
df %>%
  mutate(bmi = weight / height^2) %>%
  select(weight, height, bmi)
```

```
## # A tibble: 5,000 x 3
##    weight height   bmi
##     <dbl>  <dbl> <dbl>
##  1     65   1.65  23.9
##  2     50   1.8   15.4
##  3     70   1.7   24.2
##  4     95   1.5   42.2
##  5     75   1.9   20.8
##  6     95   1.6   37.1
##  7     60   1.6   23.4
##  8     75   1.75  24.5
##  9     60   1.45  28.5
## 10     85   1.7   29.4
## # … with 4,990 more rows
```
…
class: center, middle

<img src="./images/mutate.png" width="100%" />

---

```r
df %>%
  mutate(bmi = weight / height^2) %>%
  select(weight, height, bmi, sex, vital_status) %>%
  arrange(desc(bmi))
```

```
## # A tibble: 5,000 x 5
##    weight height   bmi sex   vital_status
##     <dbl>  <dbl> <dbl> <chr> <chr>       
##  1    150   1.55  62.4 M     A           
##  2    150   1.6   58.6 F     A           
##  3    150   1.6   58.6 F     A           
##  4    150   1.6   58.6 F     D           
##  5    135   1.55  56.2 M     D           
##  6    150   1.65  55.1 F     A           
##  7    150   1.65  55.1 M     A           
##  8    150   1.65  55.1 F     A           
##  9    150   1.65  55.1 F     A           
## 10    150   1.65  55.1 F     A           
## # … with 4,990 more rows
```
…
---

# Parsing dates

```r
df <- df %>%
  mutate(los = interval(arrival_dttm, discharge_dttm) / days(1))

df %>%
  select(los)
```

```
## # A tibble: 5,000 x 1
##      los
##    <dbl>
##  1   0.5
##  2   4  
##  3   4.5
##  4   1.5
##  5   7  
##  6   2.5
##  7   4  
##  8   2  
##  9  14  
## 10   3.5
## # … with 4,990 more rows
```
…
