Introduction
…
---

# The Tables

- synthetic_data_clean.csv
  - *1 row per patient*, and *1 column per variable*.

```r
synth_data
```

```
## # A tibble: 5,000 x 32
##    ph_abg hco3_abg temp_c temp_nc  urea creatinine    na     k    hb   wbc
##     <dbl>    <dbl>  <dbl>   <dbl> <dbl> <chr>      <dbl> <dbl> <dbl> <dbl>
##  1   7.44     28     36.9    37.1   3   80 microm…   135   4.2  90    9.6 
##  2   7.3      20.2   36.6    36.4   5.8 93 microm…   140   4.4 118   11.5 
##  3   7.48     24.6   37.2    36.2   4.5 75 microm…   140   3.8 113   12.4 
##  4   7.33     22.3   35.4    35.8  13.7 173 micro…   136   5   117   13.2 
##  5   7.21     20     35.9    37.1   7.9 186 micro…   140   4.9 171   20   
##  6   7.5      25.3   36.1    35.6   8.9 81 microm…   138   4.2 110   16.9 
##  7   7.29     19.5   35.6    38.3  12.5 55 microm…   138   5   132   13.2 
##  8   7.4      23.1   35.9    36.1   9.4 251 micro…   138   5.8  99   15.7 
##  9   7.36     24     35.9    36.6  12.9 390 micro…   134   6.5   9.7  8.85
## 10   7.43     22     36.6    37.3   5.1 56 microm…   139   4.6 141   13.5 
## # … with 4,990 more rows, and 22 more variables: neutrophil <dbl>,
## #   platelets <dbl>, crp <dbl>, chemo <dbl>, chronic_rrt <dbl>,
## #   metastatic <dbl>, radiotx <dbl>, apache <dbl>, medical <dbl>,
## #   system <dbl>, height <dbl>, weight <dbl>, elective_surgical <dbl>,
## #   arrival_dttm <dttm>, discharge_dttm <dttm>, dob <date>,
## #   vital_status <chr>, sex <chr>, id <chr>, lactate_1hr <dbl>,
## #   lactate_6hr <dbl>, lactate_12hr <dbl>
```
…
